{
  "name": "",
  "version": "0.0.0",
  "description": "",
  "sampleUrl": false,
  "defaultVersion": "0.0.0",
  "apidoc": "0.3.0",
  "generator": {
    "name": "apidoc",
    "time": "2017-12-28T17:33:53.061Z",
    "url": "http://apidocjs.com",
    "version": "0.17.6"
  }
}
